RemoteRepoName,LocalRepoName,RemoteRepoURL,TargetDirectory
vs.chart,chart,https://git@bitbucket.org/davidhary/vs.chart.git,Libraries\VS\Visuals
vs.core,Core,https://git@bitbucket.org/davidhary/vs.core.git,Libraries\VS\Core
